{
	"version": "Local settings 1.0",
	"author": "Marek J. Kolcun",

	"metadata": {
		"title": "Jochov Blog",
		"author": "Marek J. Kolcun",
		"keywords": "jocho, blog, clanky, nazory, marek kolcun",
		"description": "Jochov Blog - miesto, kde vám nikto nevynadá. Teda, pokiaľ ma nenaštvete."
	},

	"routes": {
		"{home}": 					"\\Blogger\\Home",
		"{render}": 				"\\Blogger\\Blog",
		"{render}/auth":			"\\Blogger\\Blog",
		"{number}": 				"\\Blogger\\Article",
		"e404": 					"\\Error",

		"{render}/list":			"\\Blogger\\Blog",

		"admin": 					"\\Blogger\\Admin",
		"admin/{render}": 			"\\Blogger\\Admin",
		"admin/{render}/[id]": 		"\\Blogger\\Admin"

	},

	"database": {
		"useDatabase":				"TRUE",
		"type":						"sqlite",
		"name":						"blank4",
		"address":					"localhost",
		"user":						"root",
		"password":					"",
		"debug":					"FALSE"
	}
}